Name,Age,Company,Building_Code,Phone_Number,Address
Mrs. Gopaal Pothuvaal,51,Kaul Group,61591,(325) 750-5700,"Suite 957 0220 Mohan Via, Bengaluru, OR 395790"
Chitrali Khatri III,32,Nair Brothers,931,600.959.1348,"7200 Achari Forge, Kolkata, KA 717245"
Bhadra Mukhopadhyay,49,Bandopadhyay-Singh,2725,967-833-4963,"144 Devar Walk, Chennai, GJ 645612"
Rati Singh,54,Nehru-Guha,9514,182.047.5907,"73117 Dharitri Club, Chennai, RJ 087143"
Ms. Naval Namboothiri,25,Bharadwaj Limited,6110,(561) 868-4517,"Suite 947 518 Deshpande Branch, Hyderabad, JS 425867"
Triloki Nath Bhattathiri,63,Menon-Trivedi,22744,536.105.4269,"Suite 617 2875 Tanushri Prairie, New Delhi, AR 074992"
Raj Talwar,40,Sinha Ltd,918,(579) 943-5248,"Suite 457 13500 Bhat Mills, Chennai, SK 126200"
Damayanti Dutta,93,"Butt, Talwar and Malik",891,1-668-458-2177,"Suite 236 6159 Ambar Trace, Hyderabad, DD 831949"
Durgeshwari Abbott II,19,Dubashi Corp,5432,661-433-5457,"927 Amaranaath Forest, Visakhapatnam, NL 002220"
Mohinder Guha,37,Shah Pvt Ltd,9175,603-180-5934,"376 Shanti Cape, Bengaluru, DL 729134"
Madhuri Varman,98,"Gupta, Sharma and Embranthiri",23454,(771) 625-7762,"09589 Bhilangana Field, Mumbai, MH 330638"
