Name,Age,Company,Building_Code,Phone_Number,Address
Anwesha Jha,36,Embranthiri Group,5495,1-730-955-1149,"6241 Malti Mews, Thiruvananthapuram, ML 980561"
Samir Pillai PhD,43,Sinha-Gowda,587,708.324.8990,"Apt. 282 401 Bhattacharya Well, New Delhi, JS 268513"
Aasa Naik,35,Ahuja-Joshi,88995,1-445-101-9115,"Apt. 211 8694 Gorakhanatha Cliffs, Thiruvananthapuram, DL 262885"
Balagopal Tagore,39,Guneta Group,75590,1-363-500-7012,"785 Chaturbhuj Harbor, Hyderabad, NL 453754"
Bhadrak Malik,85,"Kakkar, Iyer and Rana",284,(496) 509-1818,"Apt. 028 620 Mishra Way, Mumbai, NL 946257"
Udai Gupta III,24,"Chopra, Ahuja and Tagore",29711,546-067-8154,"95677 Khan Coves, Kolkata, ML 547597"
Mrs. Vasudev Prajapat,61,Patil-Gandhi,428,1-271-221-1081,"Suite 697 1737 Kocchar Rue, Chennai, PB 243727"
Marut Butt,73,Kakkar-Naik,8817,1-202-998-8312,"205 Desai Neck, Thiruvananthapuram, KL 030055"
Ms. Mandakini Iyengar,29,Panicker Brothers,307,172-670-2003,"818 Shukla Squares, Visakhapatnam, WB 068753"
Tarun Asan,22,Shah Ltd,92206,485-701-6826,"13124 Pillai Village, Thiruvananthapuram, BR 750795"
Himani Bhattacharya I,66,Desai Corp,47226,514-435-3859,"155 Varma Plain, Hyderabad, KA 303571"
