Name,Age,Company,Building_Code,Phone_Number,Address
Devangana Dhawan DDS,37,"Joshi, Mehra and Namboothiri",16453,(741) 720-4710,"35439 Priya Mountain, Chennai, HP 776852"
Ms. Garud Mishra,69,Embranthiri-Kapoor,8597,1-851-052-1958,"Apt. 494 681 Gill Knolls, Chennai, SK 236500"
Kanaka Joshi V,57,Ahuja Brothers,089,395.364.2482,"72979 Malik Cliffs, Mumbai, HP 861851"
Anand Swarup Nayar,79,Dwivedi-Bandopadhyay,57910,(926) 880-9128,"Suite 425 264 Uma Dale, Kolkata, OR 872179"
Narayan Nayar I,56,Iyer-Gupta,493,1-263-824-5325,"890 Gautam Crossroad, Chennai, JS 455985"
Malti Jain,82,Khan-Kaniyar,20459,(620) 433-3696,"94379 Nambeesan Mount, Chennai, SK 583048"
Sarisha Ahluwalia V,60,Patil Ltd,5116,215.087.9693,"Apt. 341 9269 Kakkar Shores, Kolkata, AN 747749"
Miss Aasa Trivedi,89,Pilla Brothers,7719,1-811-122-7268,"13785 Ahilya Summit, Bengaluru, TN 274982"
Miss Anwesha Gowda,59,Achari and Sons,5368,033-449-3013,"Suite 691 06683 Gautami Viaduct, New Delhi, GA 366765"
Deevakar Kakkar,83,"Chattopadhyay, Bhat and Guha",19585,077.238.1973,"94924 Akshat Mountains, Visakhapatnam, JS 019414"
Omana Nair,37,Bhattacharya-Dutta,28630,(818) 959-0206,"Apt. 433 819 Dhatri Flat, New Delhi, DL 649084"
