Name,Age,Company,Building_Code,Phone_Number,Address
Chinmayananda Chaturvedi,46,Dwivedi Corp,239,733-264-3005,"34411 Charuvrat Key, Hyderabad, GJ 997482"
Prema Guha,71,Kaul-Sharma,345,(287) 654-3594,"04254 Shantanu Haven, New Delhi, NL 646631"
Narayan Dwivedi,65,Dubashi Ltd,852,1-905-196-8332,"271 Padma Centers, Hyderabad, SK 495856"
Narendra Mehrotra,51,Nambeesan-Reddy,76222,1-986-957-6796,"6682 Aruna Run, Thiruvananthapuram, JS 017461"
Chandini Varrier,36,Chopra-Iyengar,36788,870.235.1904,"763 Khatri Station, Kolkata, GA 927503"
Amogh Tagore,73,Mahajan-Tandon,065,1-476-789-2274,"7332 Ashok Court, Thiruvananthapuram, CH 526966"
Ekadant Kakkar,19,Khanna-Tandon,43818,1-051-490-6035,"3781 Dayaamay Mount, Hyderabad, JK 456095"
Chetanaanand Nair,27,Shah-Dutta,7258,(235) 510-5249,"329 Abhirath Well, Chennai, AN 352592"
Shanti Marar,62,"Sethi, Singh and Khanna",3334,832.767.9829,"187 Gill Court, Bengaluru, MN 875822"
Mrs. Jagadisha Talwar,93,"Tandon, Pothuvaal and Chattopadhyay",691,900.977.7015,"Suite 086 30533 Lakshman Shoals, Hyderabad, UK 891492"
Som Patel,82,Embranthiri-Ahluwalia,8345,191-704-0866,"5207 Bharadwaj Stream, Hyderabad, UK 736097"
