Name,Age,Company,Building_Code,Phone_Number,Address
Anasuya Patil,93,"Asan, Mishra and Asan",157,178.061.0875,"Apt. 692 21582 Rana Tunnel, Mumbai, PY 246865"
Bhima Menon,64,Embranthiri-Kocchar,0967,1-667-647-0815,"Apt. 246 14360 Mukhopadhyay Center, Kolkata, DD 551700"
Charuvrat Gowda I,85,Singh Ltd,29452,194-626-0338,"488 Bela Ferry, Visakhapatnam, WB 957338"
Vaijayanti Nehru PhD,54,Sinha Corp,422,621.694.3031,"Suite 329 492 Devdan Mountain, Bengaluru, AN 156207"
Sarvin Pillai,71,Talwar Ltd,9207,297-634-5886,"640 Mandaakin Knolls, Chennai, UP 576535"
Draupadi Verma V,86,Kaul-Saini,270,058-672-2310,"Suite 382 6272 Jain Hills, Mumbai, PB 617136"
Miss Anjali Sethi,64,"Dubashi, Devar and Mahajan",94546,(146) 338-2430,"699 Sumitra Trail, Kolkata, HP 179622"
Mina Talwar,18,Guneta-Guneta,959,(625) 343-6468,"Apt. 534 9149 Deshpande Keys, Chennai, AS 768366"
Akshat Tandon,41,"Nair, Kaniyar and Shah",7921,(627) 185-0088,"696 Dhawan Crossing, Thiruvananthapuram, PY 004052"
Trilokesh Dutta,27,"Gowda, Dutta and Trivedi",6400,318.781.5749,"Suite 500 9269 Smriti Road, Hyderabad, UK 014476"
Chitrali Nehru,59,Nayar-Nair,113,481.514.7860,"91699 Butt Summit, Thiruvananthapuram, PB 593944"
