Name,Age,Company,Building_Code,Phone_Number,Address
Mrs. Chandraayan Varrier,43,"Reddy, Patel and Butt",833,219-529-3643,"Suite 501 25881 Gandhi Unions, Kolkata, ML 423989"
Aditya Guha,41,"Iyengar, Namboothiri and Saini",693,371.454.5410,"3948 Drona Junctions, New Delhi, ML 904637"
Vidhur Dwivedi,24,Gill Brothers,2607,909-174-6316,"Suite 164 735 Gowda Islands, Bengaluru, AS 193758"
Kamla Joshi,23,Menon-Kakkar,510,1-059-510-6572,"Apt. 734 83531 Iyer Mission, Mumbai, NL 581670"
Mrs. Shakti Agarwal,69,"Kocchar, Kaniyar and Dutta",7087,(858) 646-5497,"05060 Pushti Square, New Delhi, TN 670795"
Leela Dhawan,51,Somayaji Limited,291,513-098-6014,"2300 Khanna Trail, Chennai, AS 185663"
Akshita Nambeesan,82,"Marar, Pothuvaal and Bhattacharya",31316,1-146-936-0257,"Apt. 441 301 Varma Courts, Kolkata, GJ 959159"
Mandaakin Naik,44,Johar-Butt,88383,685.515.6978,"Apt. 175 86760 Suryakanta Stream, Bengaluru, HR 745126"
Laxman Jha,48,Devar-Prajapat,898,(871) 483-2577,"1425 Nayar Centers, Chennai, RJ 555683"
Balagovind Gandhi,71,Varma-Menon,67060,1-080-739-6098,"Apt. 484 044 Daevika Ridge, Hyderabad, MP 816724"
Jagdish Patel,48,Banerjee-Trivedi,7943,(650) 362-8813,"Apt. 475 03555 Shukla Courts, Kolkata, DD 262851"
