Name,Age,Company,Building_Code,Phone_Number,Address
Chatura Dhawan,42,Pothuvaal Corp,669,714.268.6625,"349 Kumar Loop, New Delhi, SK 512799"
Leela Gill I,57,Rana-Gupta,15463,702.402.1381,"388 Vyas Plain, Kolkata, KA 648656"
Kanishka Pandey,74,Guneta Group,7470,703.759.8342,"Apt. 442 598 Chaturvedi Brook, Chennai, GJ 541556"
Apsara Talwar,23,Banerjee and Sons,946,(341) 397-2936,"Suite 370 031 Deevakar Meadows, Chennai, HR 495203"
Bilwa Saini,61,Dwivedi Group,01125,(457) 189-7581,"Suite 429 0963 Kiran Mission, Chennai, TN 367763"
Uma Kaul,59,"Panicker, Somayaji and Ahuja",57223,872-611-0384,"Apt. 588 08550 Sethi Forest, Kolkata, CG 060577"
Poornima Singh,30,Marar-Chattopadhyay,1884,1-052-163-4324,"Suite 116 5521 Jyotis Stream, Chennai, MH 375372"
Achintya Asan,74,Asan Limited,72766,006-786-5289,"Apt. 074 883 Kaniyar Fields, Thiruvananthapuram, ML 533212"
Jai Kaniyar,89,Johar-Bhattathiri,2248,(931) 402-0219,"Suite 820 690 Embranthiri Route, Bengaluru, UP 810453"
Surya Gowda,74,"Kakkar, Jha and Talwar",307,646.193.5327,"827 Jitendra Gardens, Mumbai, TN 269145"
Amogh Tagore,63,Reddy Brothers,213,748.141.2357,"Suite 150 2231 Deepali Bypass, Hyderabad, CH 994598"
