Name,Age,Company,Building_Code,Phone_Number,Address
Anasooya Abbott,59,Tagore Ltd,8602,1-592-805-9171,"1126 Sarala Club, Mumbai, HP 009655"
Kannan Iyer,51,"Chopra, Naik and Johar",23949,(117) 786-0434,"Suite 692 711 Devi Cape, Bengaluru, UK 400303"
Saraswati Mukhopadhyay,50,Bhattathiri Limited,97983,934.190.8335,"Suite 062 9182 Chaten Fields, Mumbai, MN 040053"
Vidhya Dhawan,52,Gowda-Mehra,352,(797) 727-9984,"631 Desai Rue, Chennai, PY 311160"
Anilabh Kakkar,24,"Marar, Gupta and Chattopadhyay",37884,659-676-3077,"Suite 805 2149 Dhanalakshmi Isle, Visakhapatnam, AR 571183"
Chetan Nayar,64,Guha-Embranthiri,23741,792-529-6431,"Apt. 494 867 Pran Crossing, Bengaluru, AS 104987"
Mrs. Gouranga Namboothiri,98,Dhawan-Menon,6801,1-163-115-5601,"5028 Tushar Mountains, Visakhapatnam, MP 180200"
Chitrali Kakkar,68,Nehru-Desai,708,727-912-2351,"Suite 117 992 Pandey Plains, Visakhapatnam, NL 252757"
Shreya Nambeesan,59,Rana-Pandey,66117,194.089.8901,"98565 Kalinda Ports, Hyderabad, MZ 659782"
Brajesh Patel,93,"Bhattathiri, Kakkar and Acharya",420,194.833.0612,"Apt. 034 07282 Gurdev Dale, Visakhapatnam, DN 043900"
Digambara Guha,60,Varrier-Sharma,68625,811.358.9891,"00119 Varalakshmi Terrace, Bengaluru, AN 542405"
