Name,Age,Company,Building_Code,Phone_Number,Address
Aanand Bhattathiri,87,Naik-Naik,28455,586.820.7424,"Apt. 852 5092 Daksha Motorway, Hyderabad, BR 417736"
Meghnad Talwar,19,Desai Group,62170,1-039-580-5972,"36023 Bharat Canyon, Visakhapatnam, KA 878195"
Digambara Khatri,60,Nambeesan Pvt Ltd,665,929.517.8101,"995 Darshan Wall, Hyderabad, LD 887764"
Gemine Tagore,29,Johar-Adiga,80574,(888) 283-5562,"63033 Devar Drive, Visakhapatnam, MZ 630299"
Enakshi Shukla,64,Adiga and Sons,7045,559.897.1373,"0005 Upendra Prairie, Kolkata, MH 980243"
Vidya Pandey,32,Kakkar-Pillai,910,591-887-0616,"03594 Jaimini Rapids, Kolkata, MN 729933"
Priyala Pothuvaal,32,Kaul-Chopra,4689,1-909-327-9009,"532 Brajendra Summit, Kolkata, SK 835126"
Divakar Mehrotra,57,"Bhattathiri, Banerjee and Gupta",3308,530.092.8848,"Suite 362 872 Namboothiri Lakes, Thiruvananthapuram, DN 146010"
Krishnadasa Rana Sr.,73,Marar Corp,8521,1-418-746-7368,"Suite 280 51928 Chattopadhyay Corners, Kolkata, KA 640497"
Vidhur Sinha,25,Khan Group,3027,1-828-629-0113,"615 Chandraswaroopa Roads, Chennai, AP 045333"
Bhagvan Iyer V,62,"Acharya, Kaul and Varrier",243,1-620-266-4887,"140 Shah Neck, Mumbai, KL 697888"
