Name,Age,Company,Building_Code,Phone_Number,Address
Mohana Nehru,80,Sethi Brothers,819,516.873.7873,"Apt. 112 78583 Chidaatma Locks, Kolkata, UP 644301"
Mr. Chaturaanan Ganaka,79,Bhat-Pilla,12746,370-910-8327,"Suite 550 33754 Kaur Trace, Chennai, CG 670756"
Gouranga Sinha,57,Nehru Pvt Ltd,319,896.460.7485,"Suite 068 300 Trilokesh Brooks, Kolkata, MP 887983"
Chinmayananda Ganaka,96,Ahluwalia-Ganaka,83243,651.016.3764,"Apt. 246 0255 Jahnu Plaza, Thiruvananthapuram, AS 986940"
Vidhya Patel,21,"Dwivedi, Naik and Khanna",484,652.324.1546,"44463 Pilla Station, New Delhi, AP 313785"
Radha Khatri,41,Nair Corp,62293,015.865.6810,"Suite 686 22447 Dandak Manors, Visakhapatnam, TN 218288"
Bhudeva Reddy I,23,Achari-Nayar,8280,226-204-7384,"Suite 557 5749 Namboothiri Track, Thiruvananthapuram, DD 306425"
Miss Guru Sharma,24,"Bhattacharya, Mukhopadhyay and Jha",0480,(804) 689-4116,"93822 Bhramar Lights, Mumbai, HP 180216"
Tejas Kaniyar,32,"Shah, Bandopadhyay and Nehru",795,(269) 156-8557,"925 Trilokanath Hills, Visakhapatnam, ML 941126"
Dr. Shobhana Varma,82,Sharma-Khatri,54818,437.221.4067,"10157 Sarla Freeway, Bengaluru, DL 709706"
Mrs. Vasudha Mahajan,65,"Pothuvaal, Desai and Bhattathiri",100,(189) 972-6831,"5561 Bhadrak Valleys, Bengaluru, KA 301985"
